04/04/16 11:56 

Problem 1 (10 points):
Score += 10

Problem 2 (10 points):
Score += 10

Problem 3 (10 points):
Score += 10

Problem 4 (10 points):
Score += 10

Problem 5 (10 points):
Your code looks good, but top teams are wrong (roughly correct, but out of order)
Score += 8

Total score: 48/50 = 96.0%

Great job!

-------------------------------------------------------


